{
  "implemented": true,
  "name": "Kingdra",
  "nationalPokedexNumber": 230,
  "primaryType": "water",
  "secondaryType": "dragon",
  "abilities": [
    "swiftswim",
    "sniper",
    "h:damp"
  ],
  "baseStats": {
    "hp": 75,
    "attack": 95,
    "defence": 95,
    "special_attack": 95,
    "special_defence": 95,
    "speed": 85
  },
  "catchRate": 45,
  "maleRatio": 0.5,
  "shoulderMountable": false,
  "baseExperienceYield": 270,
  "experienceGroup": "medium_fast",
  "eggCycles": 20,
  "eggGroups": [
    "water_1",
    "dragon"
  ],
  "drops": {
    "amount": "1",
    "entries": [
      {
        "item": "minecraft:prismarine_crystals",
        "quantityRange": "1-3",
        "percentage": 75
      }
    ]
  },
  "behaviour": {
    "moving": {
      "swim": {
        "canSwimInWater": true,
        "canBreatheUnderwater": true
      }
    }
  },
  "moves": [
    "1:bubble",
    "1:leer",
    "1:smokescreen",
    "1:twister",
    "1:watergun",
    "1:whirlpool",
    "1:yawn",
    "15:focusenergy",
    "20:dragonbreath",
    "25:bubblebeam",
    "30:agility",
    "37:laserfocus",
    "44:dragonpulse",
    "51:hydropump",
    "58:dragondance",
    "65:raindance",
    "tm:agility",
    "tm:attract",
    "tm:blizzard",
    "tm:bodyslam",
    "tm:bounce",
    "tm:breakingswipe",
    "tm:brine",
    "tm:captivate",
    "tm:confide",
    "tm:dive",
    "tm:doubleteam",
    "tm:dragondance",
    "tm:dragonpulse",
    "tm:endure",
    "tm:facade",
    "tm:flashcannon",
    "tm:focusenergy",
    "tm:frustration",
    "tm:gigaimpact",
    "tm:hail",
    "tm:hiddenpower",
    "tm:hurricane",
    "tm:hydropump",
    "tm:hyperbeam",
    "tm:icebeam",
    "tm:icywind",
    "tm:ironhead",
    "tm:liquidation",
    "tm:muddywater",
    "tm:naturalgift",
    "tm:outrage",
    "tm:protect",
    "tm:quash",
    "tm:raindance",
    "tm:rest",
    "tm:return",
    "tm:round",
    "tm:scald",
    "tm:secretpower",
    "tm:sleeptalk",
    "tm:snore",
    "tm:substitute",
    "tm:surf",
    "tm:swagger",
    "tm:swift",
    "tm:toxic",
    "tm:waterfall",
    "tm:whirlpool",
    "tutor:bubble",
    "tutor:curse",
    "tutor:doubleedge",
    "tutor:doubleteam",
    "tutor:dracometeor",
    "tutor:flipturn",
    "tutor:frustration",
    "tutor:headbutt",
    "tutor:hiddenpower",
    "tutor:mimic",
    "tutor:return",
    "tutor:scaleshot",
    "tutor:signalbeam",
    "tutor:swagger",
    "tutor:toxic",
    "tutor:waterpulse"
  ],
  "labels": [
    "gen2"
  ],
  "pokedex": [
    "cobblemon.species.kingdra.desc"
  ],
  "preEvolution": "seadra",
  "evolutions": [],
  "baseScale": 1.2,
  "hitbox": {
    "width": 0.9,
    "height": 2.3,
    "fixed": false
  },
  "baseFriendship": 50,
  "evYield": {
    "hp": 0,
    "attack": 1,
    "defence": 0,
    "special_attack": 1,
    "special_defence": 1,
    "speed": 0
  },
  "height": 18,
  "weight": 1520,
  "aspects": [],
  "cannotDynamax": false
}