{
  "name": "Miltank",
  "nationalPokedexNumber": 241,
  "primaryType": "normal",
  "abilities": [
    "thickfat",
    "scrappy",
    "h:sapsipper"
  ],
  "baseStats": {
    "hp": 95,
    "attack": 80,
    "defence": 105,
    "special_attack": 40,
    "special_defence": 70,
    "speed": 100
  },
  "catchRate": 45,
  "maleRatio": 0,
  "shoulderMountable": false,
  "baseExperienceYield": 172,
  "experienceGroup": "slow",
  "eggCycles": 20,
  "eggGroups": [
    "field"
  ],
  "moves": [
    "1:growl",
    "1:tackle",
    "5:rollout",
    "10:defensecurl",
    "15:bide",
    "15:stomp",
    "20:healbell",
    "25:headbutt",
    "30:zenheadbutt",
    "35:captivate",
    "35:milkdrink",
    "40:bodyslam",
    "45:playrough",
    "50:charm",
    "50:wakeupslap",
    "55:highhorsepower",
    "egg:belch",
    "egg:curse",
    "egg:dizzypunch",
    "egg:doubleedge",
    "egg:focuspunch",
    "egg:hammerarm",
    "egg:heartstamp",
    "egg:naturalgift",
    "egg:present",
    "egg:punishment",
    "egg:seismictoss",
    "tm:attract",
    "tm:blizzard",
    "tm:bodypress",
    "tm:bodyslam",
    "tm:brickbreak",
    "tm:bulldoze",
    "tm:charm",
    "tm:confide",
    "tm:doubleteam",
    "tm:earthquake",
    "tm:echoedvoice",
    "tm:endure",
    "tm:facade",
    "tm:firepunch",
    "tm:fling",
    "tm:focusblast",
    "tm:frustration",
    "tm:gigaimpact",
    "tm:gyroball",
    "tm:heavyslam",
    "tm:helpinghand",
    "tm:hiddenpower",
    "tm:highhorsepower",
    "tm:hyperbeam",
    "tm:icebeam",
    "tm:icepunch",
    "tm:icywind",
    "tm:ironhead",
    "tm:irontail",
    "tm:megakick",
    "tm:megapunch",
    "tm:metronome",
    "tm:playrough",
    "tm:poweruppunch",
    "tm:protect",
    "tm:psychup",
    "tm:raindance",
    "tm:rest",
    "tm:retaliate",
    "tm:return",
    "tm:reversal",
    "tm:rockslide",
    "tm:rocktomb",
    "tm:round",
    "tm:sandstorm",
    "tm:secretpower",
    "tm:shadowball",
    "tm:sleeptalk",
    "tm:snore",
    "tm:solarbeam",
    "tm:stealthrock",
    "tm:stompingtantrum",
    "tm:substitute",
    "tm:sunnyday",
    "tm:surf",
    "tm:swagger",
    "tm:thunder",
    "tm:thunderbolt",
    "tm:thunderpunch",
    "tm:thunderwave",
    "tm:toxic",
    "tm:whirlpool",
    "tm:workup",
    "tm:zenheadbutt",
    "tutor:afteryou",
    "tutor:bide",
    "tutor:block",
    "tutor:counter",
    "tutor:doubleteam",
    "tutor:dynamicpunch",
    "tutor:frustration",
    "tutor:hiddenpower",
    "tutor:mimic",
    "tutor:mudslap",
    "tutor:psychup",
    "tutor:return",
    "tutor:rocksmash",
    "tutor:shockwave",
    "tutor:steelroller",
    "tutor:strength",
    "tutor:swagger",
    "tutor:sweetscent",
    "tutor:toxic",
    "tutor:waterpulse",
    "tutor:zapcannon"
  ],
  "labels": [
    "gen2"
  ],
  "pokedex": [
    "cobblemon.species.miltank.desc"
  ],
  "evolutions": [],
  "baseScale": 1,
  "hitbox": {
    "width": 1,
    "height": 1,
    "fixed": false
  },
  "baseFriendship": 50,
  "evYield": {
    "hp": 0,
    "attack": 0,
    "defence": 2,
    "special_attack": 0,
    "special_defence": 0,
    "speed": 0
  },
  "height": 12,
  "weight": 755,
  "aspects": [],
  "features": [
    "milkable"
  ],
  "cannotDynamax": false
}