{
  "name": "Spinarak",
  "nationalPokedexNumber": 167,
  "primaryType": "bug",
  "secondaryType": "poison",
  "abilities": [
    "swarm",
    "insomnia",
    "h:sniper"
  ],
  "baseStats": {
    "hp": 40,
    "attack": 60,
    "defence": 40,
    "special_attack": 40,
    "special_defence": 40,
    "speed": 30
  },
  "catchRate": 255,
  "maleRatio": 0.5,
  "shoulderMountable": false,
  "baseExperienceYield": 50,
  "experienceGroup": "fast",
  "eggCycles": 15,
  "eggGroups": [
    "bug"
  ],
  "moves": [
    "1:constrict",
    "1:poisonsting",
    "1:stringshot",
    "5:absorb",
    "8:infestation",
    "12:scaryface",
    "15:nightshade",
    "19:shadowsneak",
    "22:furyswipes",
    "26:suckerpunch",
    "29:spiderweb",
    "33:agility",
    "36:pinmissile",
    "40:psychic",
    "43:poisonjab",
    "47:crosspoison",
    "50:stickyweb",
    "54:toxicthread",
    "egg:batonpass",
    "egg:disable",
    "egg:electroweb",
    "egg:lunge",
    "egg:megahorn",
    "egg:nightslash",
    "egg:psybeam",
    "egg:pursuit",
    "egg:ragepowder",
    "egg:signalbeam",
    "egg:sonicboom",
    "egg:toxicspikes",
    "egg:twineedle",
    "tm:attract",
    "tm:captivate",
    "tm:confide",
    "tm:doubleteam",
    "tm:facade",
    "tm:frustration",
    "tm:hiddenpower",
    "tm:honeclaws",
    "tm:infestation",
    "tm:leechlife",
    "tm:naturalgift",
    "tm:poisonjab",
    "tm:protect",
    "tm:psychic",
    "tm:rest",
    "tm:return",
    "tm:round",
    "tm:secretpower",
    "tm:sleeptalk",
    "tm:sludgebomb",
    "tm:solarbeam",
    "tm:strugglebug",
    "tm:substitute",
    "tm:sunnyday",
    "tm:swagger",
    "tm:thief",
    "tm:toxic",
    "tm:venoshock",
    "tm:xscissor",
    "tutor:agility",
    "tutor:attract",
    "tutor:batonpass",
    "tutor:bodyslam",
    "tutor:bounce",
    "tutor:bugbite",
    "tutor:constrict",
    "tutor:curse",
    "tutor:dig",
    "tutor:disable",
    "tutor:doubleedge",
    "tutor:doubleteam",
    "tutor:electroweb",
    "tutor:endure",
    "tutor:flash",
    "tutor:foulplay",
    "tutor:frustration",
    "tutor:furyswipes",
    "tutor:gigadrain",
    "tutor:gigadrain",
    "tutor:hiddenpower",
    "tutor:leechlife",
    "tutor:mimic",
    "tutor:nightshade",
    "tutor:poisonsting",
    "tutor:protect",
    "tutor:psybeam",
    "tutor:psychic",
    "tutor:pursuit",
    "tutor:refresh",
    "tutor:rest",
    "tutor:return",
    "tutor:scaryface",
    "tutor:screech",
    "tutor:signalbeam",
    "tutor:sleeptalk",
    "tutor:sludgebomb",
    "tutor:snore",
    "tutor:snore",
    "tutor:solarbeam",
    "tutor:sonicboom",
    "tutor:spiderweb",
    "tutor:stringshot",
    "tutor:sunnyday",
    "tutor:swagger",
    "tutor:thief",
    "tutor:toxic"
  ],
  "labels": [
    "gen2"
  ],
  "pokedex": [
    "cobblemon.species.spinarak.desc"
  ],
  "evolutions": [
    {
      "id": "spinarak_ariados",
      "variant": "level_up",
      "result": "ariados",
      "consumeHeldItem": false,
      "learnableMoves": [],
      "requirements": [
        {
          "variant": "level",
          "minLevel": 22
        }
      ]
    }
  ],
  "baseScale": 1,
  "hitbox": {
    "width": 1,
    "height": 1,
    "fixed": false
  },
  "baseFriendship": 70,
  "evYield": {
    "hp": 0,
    "attack": 1,
    "defence": 0,
    "special_attack": 0,
    "special_defence": 0,
    "speed": 0
  },
  "height": 5,
  "weight": 85,
  "aspects": [],
  "cannotDynamax": false
}