{
  "name": "Helioptile",
  "nationalPokedexNumber": 694,
  "primaryType": "electric",
  "secondaryType": "normal",
  "abilities": [
    "dryskin",
    "sandveil",
    "h:solarpower"
  ],
  "baseStats": {
    "hp": 44,
    "attack": 38,
    "defence": 33,
    "special_attack": 61,
    "special_defence": 43,
    "speed": 70
  },
  "catchRate": 190,
  "maleRatio": 0.5,
  "shoulderMountable": false,
  "baseExperienceYield": 58,
  "experienceGroup": "medium_fast",
  "eggCycles": 20,
  "eggGroups": [
    "monster",
    "dragon"
  ],
  "moves": [
    "1:mudslap",
    "1:tailwhip",
    "4:pound",
    "8:thundershock",
    "12:quickattack",
    "16:charge",
    "20:bulldoze",
    "22:razorwind",
    "24:voltswitch",
    "28:paraboliccharge",
    "32:thunderwave",
    "36:thunderbolt",
    "40:electrify",
    "44:thunder",
    "egg:camouflage",
    "egg:dragonrush",
    "egg:dragontail",
    "egg:glare",
    "tm:agility",
    "tm:allyswitch",
    "tm:attract",
    "tm:bulldoze",
    "tm:chargebeam",
    "tm:confide",
    "tm:cut",
    "tm:darkpulse",
    "tm:dig",
    "tm:doubleteam",
    "tm:electricterrain",
    "tm:electroball",
    "tm:electroweb",
    "tm:endure",
    "tm:facade",
    "tm:flash",
    "tm:frustration",
    "tm:grassknot",
    "tm:hiddenpower",
    "tm:irontail",
    "tm:lightscreen",
    "tm:lowsweep",
    "tm:protect",
    "tm:psychup",
    "tm:raindance",
    "tm:rest",
    "tm:return",
    "tm:rockslide",
    "tm:rocktomb",
    "tm:round",
    "tm:sandstorm",
    "tm:secretpower",
    "tm:sleeptalk",
    "tm:snore",
    "tm:substitute",
    "tm:surf",
    "tm:swagger",
    "tm:swift",
    "tm:thunder",
    "tm:thunderbolt",
    "tm:thunderwave",
    "tm:toxic",
    "tm:uturn",
    "tm:voltswitch",
    "tm:wildcharge",
    "tutor:magnetrise",
    "tutor:risingvoltage",
    "tutor:scaleshot",
    "tutor:shockwave",
    "tutor:signalbeam"
  ],
  "labels": [
    "gen6"
  ],
  "pokedex": [
    "cobblemon.species.helioptile.desc"
  ],
  "evolutions": [
    {
      "id": "helioptile_heliolisk",
      "variant": "item_interact",
      "result": "heliolisk",
      "consumeHeldItem": false,
      "learnableMoves": [],
      "requirements": [],
      "requiredContext": "cobblemon:sun_stone"
    }
  ],
  "baseScale": 1,
  "hitbox": {
    "width": 1,
    "height": 1,
    "fixed": false
  },
  "baseFriendship": 50,
  "evYield": {
    "hp": 0,
    "attack": 0,
    "defence": 0,
    "special_attack": 0,
    "special_defence": 0,
    "speed": 1
  },
  "height": 5,
  "weight": 60,
  "aspects": [],
  "cannotDynamax": false
}