{
  "name": "Patrat",
  "nationalPokedexNumber": 504,
  "primaryType": "normal",
  "abilities": [
    "runaway",
    "keeneye",
    "h:analytic"
  ],
  "baseStats": {
    "hp": 45,
    "attack": 55,
    "defence": 39,
    "special_attack": 35,
    "special_defence": 39,
    "speed": 42
  },
  "catchRate": 255,
  "maleRatio": 0.5,
  "shoulderMountable": false,
  "baseExperienceYield": 51,
  "experienceGroup": "medium_fast",
  "eggCycles": 15,
  "eggGroups": [
    "field"
  ],
  "moves": [
    "1:tackle",
    "3:leer",
    "6:bite",
    "8:bide",
    "11:detect",
    "13:sandattack",
    "16:crunch",
    "18:hypnosis",
    "21:superfang",
    "23:afteryou",
    "26:focusenergy",
    "28:workup",
    "31:hyperfang",
    "33:nastyplot",
    "36:meanlook",
    "38:batonpass",
    "41:slam",
    "egg:assurance",
    "egg:bulletseed",
    "egg:flail",
    "egg:foresight",
    "egg:irontail",
    "egg:pursuit",
    "egg:revenge",
    "egg:screech",
    "egg:tearfullook",
    "tm:attract",
    "tm:confide",
    "tm:cut",
    "tm:dig",
    "tm:doubleteam",
    "tm:facade",
    "tm:fling",
    "tm:frustration",
    "tm:grassknot",
    "tm:hiddenpower",
    "tm:protect",
    "tm:raindance",
    "tm:rest",
    "tm:retaliate",
    "tm:return",
    "tm:round",
    "tm:secretpower",
    "tm:shadowball",
    "tm:sleeptalk",
    "tm:substitute",
    "tm:sunnyday",
    "tm:swagger",
    "tm:swordsdance",
    "tm:thunderbolt",
    "tm:toxic",
    "tm:workup",
    "tutor:afteryou",
    "tutor:aquatail",
    "tutor:covet",
    "tutor:endeavor",
    "tutor:gunkshot",
    "tutor:helpinghand",
    "tutor:irontail",
    "tutor:laserfocus",
    "tutor:lastresort",
    "tutor:lowkick",
    "tutor:seedbomb",
    "tutor:shockwave",
    "tutor:snore",
    "tutor:superfang",
    "tutor:zenheadbutt"
  ],
  "labels": [
    "gen5"
  ],
  "pokedex": [
    "cobblemon.species.patrat.desc"
  ],
  "evolutions": [
    {
      "id": "patrat_watchog",
      "variant": "level_up",
      "result": "watchog",
      "consumeHeldItem": false,
      "learnableMoves": [],
      "requirements": [
        {
          "variant": "level",
          "minLevel": 20
        }
      ]
    }
  ],
  "baseScale": 1,
  "hitbox": {
    "width": 1,
    "height": 1,
    "fixed": false
  },
  "baseFriendship": 70,
  "evYield": {
    "hp": 0,
    "attack": 1,
    "defence": 0,
    "special_attack": 0,
    "special_defence": 0,
    "speed": 0
  },
  "height": 5,
  "weight": 116,
  "aspects": [],
  "cannotDynamax": false
}