{
  "name": "Vullaby",
  "nationalPokedexNumber": 629,
  "primaryType": "dark",
  "secondaryType": "flying",
  "abilities": [
    "bigpecks",
    "overcoat",
    "h:weakarmor"
  ],
  "baseStats": {
    "hp": 70,
    "attack": 55,
    "defence": 75,
    "special_attack": 45,
    "special_defence": 65,
    "speed": 60
  },
  "catchRate": 190,
  "maleRatio": 0,
  "shoulderMountable": false,
  "baseExperienceYield": 74,
  "experienceGroup": "slow",
  "eggCycles": 20,
  "eggGroups": [
    "flying"
  ],
  "moves": [
    "1:gust",
    "1:leer",
    "5:furyattack",
    "6:flatter",
    "12:pluck",
    "18:tailwind",
    "23:feintattack",
    "24:knockoff",
    "28:punishment",
    "30:irondefense",
    "36:whirlwind",
    "42:airslash",
    "48:darkpulse",
    "50:embargo",
    "54:nastyplot",
    "60:defog",
    "64:mirrormove",
    "66:attract",
    "72:bravebird",
    "egg:meanlook",
    "egg:roost",
    "egg:toxic",
    "tm:aerialace",
    "tm:airslash",
    "tm:assurance",
    "tm:attract",
    "tm:bravebird",
    "tm:confide",
    "tm:cut",
    "tm:darkpulse",
    "tm:doubleteam",
    "tm:embargo",
    "tm:endure",
    "tm:facade",
    "tm:faketears",
    "tm:fly",
    "tm:foulplay",
    "tm:frustration",
    "tm:heatwave",
    "tm:hiddenpower",
    "tm:incinerate",
    "tm:irondefense",
    "tm:nastyplot",
    "tm:payback",
    "tm:protect",
    "tm:psychup",
    "tm:raindance",
    "tm:rest",
    "tm:retaliate",
    "tm:return",
    "tm:rocksmash",
    "tm:rocktomb",
    "tm:round",
    "tm:scaryface",
    "tm:secretpower",
    "tm:shadowball",
    "tm:sleeptalk",
    "tm:snarl",
    "tm:snore",
    "tm:steelwing",
    "tm:substitute",
    "tm:sunnyday",
    "tm:swagger",
    "tm:swift",
    "tm:taunt",
    "tm:thief",
    "tm:torment",
    "tm:uturn",
    "tutor:block",
    "tutor:dualwingbeat",
    "tutor:lashout",
    "tutor:snatch"
  ],
  "labels": [
    "gen5"
  ],
  "pokedex": [
    "cobblemon.species.vullaby.desc"
  ],
  "evolutions": [
    {
      "id": "vullaby_mandibuzz",
      "variant": "level_up",
      "result": "mandibuzz",
      "consumeHeldItem": false,
      "learnableMoves": [
        "bonerush"
      ],
      "requirements": [
        {
          "variant": "level",
          "minLevel": 54
        }
      ]
    }
  ],
  "baseScale": 1,
  "hitbox": {
    "width": 1,
    "height": 1,
    "fixed": false
  },
  "baseFriendship": 35,
  "evYield": {
    "hp": 0,
    "attack": 0,
    "defence": 1,
    "special_attack": 0,
    "special_defence": 0,
    "speed": 0
  },
  "height": 5,
  "weight": 90,
  "aspects": [],
  "cannotDynamax": false
}