{
  "implemented": true,
  "name": "Milcery",
  "nationalPokedexNumber": 868,
  "primaryType": "fairy",
  "abilities": [
    "sweetveil",
    "h:aromaveil"
  ],
  "baseStats": {
    "hp": 45,
    "attack": 40,
    "defence": 40,
    "special_attack": 50,
    "special_defence": 61,
    "speed": 34
  },
  "catchRate": 200,
  "maleRatio": 0,
  "shoulderMountable": true,
  "baseExperienceYield": 54,
  "experienceGroup": "medium_fast",
  "eggCycles": 20,
  "eggGroups": [
    "fairy",
    "amorphous"
  ],
  "moves": [
    "1:aromaticmist",
    "1:tackle",
    "5:sweetkiss",
    "10:sweetscent",
    "15:drainingkiss",
    "20:aromatherapy",
    "25:attract",
    "30:acidarmor",
    "35:dazzlinggleam",
    "40:recover",
    "45:mistyterrain",
    "50:entrainment",
    "egg:babydolleyes",
    "egg:lastresort",
    "tm:attract",
    "tm:charm",
    "tm:dazzlinggleam",
    "tm:drainingkiss",
    "tm:endure",
    "tm:facade",
    "tm:fling",
    "tm:helpinghand",
    "tm:mistyterrain",
    "tm:protect",
    "tm:rest",
    "tm:round",
    "tm:sleeptalk",
    "tm:snore",
    "tm:storedpower",
    "tm:substitute",
    "tutor:attract",
    "tutor:celebrate",
    "tutor:entrainment",
    "tutor:lastresort"
  ],
  "labels": [
    "gen8"
  ],
  "pokedex": [
    "cobblemon.species.milcery.desc"
  ],
  "evolutions": [
    {
      "id": "milcery_alcremie",
      "variant": "level_up",
      "result": "alcremie",
      "consumeHeldItem": false,
      "learnableMoves": [
        "decorate"
      ],
      "requirements": []
    }
  ],
  "baseScale": 0.5,
  "hitbox": {
    "width": 0.5,
    "height": 0.5,
    "fixed": false
  },
  "baseFriendship": 50,
  "evYield": {
    "hp": 0,
    "attack": 0,
    "defence": 0,
    "special_attack": 0,
    "special_defence": 1,
    "speed": 0
  },
  "height": 2,
  "weight": 3,
  "aspects": [],
  "cannotDynamax": false
}