{
  "name": "Sneasler",
  "nationalPokedexNumber": 903,
  "primaryType": "fighting",
  "secondaryType": "poison",
  "abilities": [
    "pressure",
    "unburden",
    "h:poisontouch"
  ],
  "baseStats": {
    "hp": 80,
    "attack": 130,
    "defence": 60,
    "special_attack": 40,
    "special_defence": 80,
    "speed": 120
  },
  "catchRate": 135,
  "maleRatio": 0.5,
  "shoulderMountable": false,
  "baseExperienceYield": 0,
  "baseFriendship": 0,
  "evYield": {
    "hp": 0,
    "attack": 1,
    "defence": 0,
    "special_attack": 0,
    "special_defence": 0,
    "speed": 1
  },
  "experienceGroup": "medium_slow",
  "eggCycles": 0,
  "eggGroups": [
    "field"
  ],
  "moves": [
    "1:fling",
    "1:leer",
    "1:rocksmash",
    "1:scratch",
    "6:taunt",
    "12:quickattack",
    "18:metalclaw",
    "24:poisonjab",
    "30:brickbreak",
    "36:honeclaws",
    "42:slash",
    "48:agility",
    "54:screech",
    "60:closecombat",
    "tm:acidspray",
    "tm:acrobatics",
    "tm:aerialace",
    "tm:agility",
    "tm:brickbreak",
    "tm:bulkup",
    "tm:calmmind",
    "tm:closecombat",
    "tm:dig",
    "tm:endure",
    "tm:facade",
    "tm:falseswipe",
    "tm:firepunch",
    "tm:fling",
    "tm:focusblast",
    "tm:gigaimpact",
    "tm:grassknot",
    "tm:gunkshot",
    "tm:hyperbeam",
    "tm:lowkick",
    "tm:lowsweep",
    "tm:metalclaw",
    "tm:nastyplot",
    "tm:poisonjab",
    "tm:poisontail",
    "tm:protect",
    "tm:raindance",
    "tm:rest",
    "tm:reversal",
    "tm:rockslide",
    "tm:rocktomb",
    "tm:shadowball",
    "tm:shadowclaw",
    "tm:sleeptalk",
    "tm:sludgebomb",
    "tm:substitute",
    "tm:sunnyday",
    "tm:swift",
    "tm:swordsdance",
    "tm:takedown",
    "tm:taunt",
    "tm:terablast",
    "tm:thief",
    "tm:toxicspikes",
    "tm:trailblaze",
    "tm:uturn",
    "tm:venoshock",
    "tm:xscissor"
  ],
  "labels": [
    "gen8"
  ],
  "pokedex": [
    "cobblemon.species.sneasler.desc"
  ],
  "height": 13,
  "weight": 430,
  "preEvolution": "sneasel form=hisui",
  "evolutions": [],
  "aspects": [],
  "cannotDynamax": false
}