{
    "enabled": true,
    "neededInstalledMods": [],
    "neededUninstalledMods": [],
    "spawns": [
        {
            "id": "blastoise",
            "pokemon": "blastoise",
            "presets": [
                "river",
                "river"
            ],
            "type": "pokemon",
            "context": "grounded",
            "bucket": "ultra-rare",
            "level": "36-53",
            "weight": 0.1,
            "condition": {
                "canSeeSky": true
            }
        },
        {
            "id": "blastoise",
            "pokemon": "blastoise",
            "presets": [
                "river",
                "underwater",
                "river"
            ],
            "type": "pokemon",
            "context": "submerged",
            "bucket": "ultra-rare",
            "level": "36-53",
            "weight": 0.1,
            "condition": {
                "canSeeSky": true
            }
        }
    ]
}