{
    "enabled": true,
    "neededInstalledMods": [],
    "neededUninstalledMods": [],
    "spawns": [
        {
            "id": "lickitung-1",
            "pokemon": "lickitung",
            "type": "pokemon",
            "context": "grounded",
            "bucket": "uncommon",
            "level": "18-32",
            "weight": 1.8,
            "condition": {
                "canSeeSky": true,
                "biomes": [
                    "#cobblemon:is_grassland"
                ],
                "timeRange": "day"
            }
        }
    ]
}