{
    "enabled": true,
    "neededInstalledMods": [],
    "neededUninstalledMods": [],
    "spawns": [
        {
            "id": "electabuzz-1",
            "pokemon": "electabuzz",
            "type": "pokemon",
            "context": "grounded",
            "bucket": "common",
            "level": "30-49",
            "weight": 0.54,
            "condition": {
                "canSeeSky": true,
                "biomes": [
                    "#cobblemon:is_plains"
                ],
                "isThundering": true
            }
        },
        {
            "id": "electabuzz-2",
            "pokemon": "electabuzz",
            "type": "pokemon",
            "context": "grounded",
            "bucket": "uncommon",
            "level": "30-49",
            "weight": 0.9,
            "condition": {
                "canSeeSky": true,
                "biomes": [
                    "#cobblemon:is_plains"
                ],
				"neededNearbyBlocks": [
                    "minecraft:lightning_rod"
                ]
            }
        }
    ]
}