{
    "enabled": true,
    "neededInstalledMods": [],
    "neededUninstalledMods": [],
    "spawns": [
        {
            "id": "tyrogue-1",
            "pokemon": "tyrogue",
            "type": "pokemon",
            "context": "grounded",
            "bucket": "uncommon",
            "level": "5-21",
            "weight": 1.98,
            "condition": {
                "canSeeSky": true,
                "biomes": [
                    "#cobblemon:is_hills"
                ],
                "timeRange": "day"
            }
        }
    ]
}