{
    "enabled": true,
    "neededInstalledMods": [],
    "neededUninstalledMods": [],
    "spawns": [
        {
            "id": "steenee-1",
            "pokemon": "steenee",
            "type": "pokemon",
            "context": "grounded",
            "bucket": "common",
            "level": "18-29",
            "weight": 0.18,
            "condition": {
                "canSeeSky": true,
                "biomes": [
                    "#cobblemon:is_jungle"
                ]
            }
        }
    ]
}