{
  "implemented": true,
  "name": "Spearow",
  "nationalPokedexNumber": 21,
  "primaryType": "normal",
  "secondaryType": "flying",
  "abilities": [
    "keeneye",
    "h:sniper"
  ],
  "baseStats": {
    "hp": 40,
    "attack": 60,
    "defence": 30,
    "special_attack": 31,
    "special_defence": 31,
    "speed": 70
  },
  "catchRate": 255,
  "maleRatio": 0.5,
  "shoulderMountable": false,
  "baseExperienceYield": 52,
  "experienceGroup": "medium_fast",
  "eggCycles": 15,
  "eggGroups": [
    "flying"
  ],
  "behaviour": {
    "moving": {
      "fly": {
        "canFly": true
      }
    },
    "resting": {
      "canSleep": false,
      "willSleepOnBed": false,
      "depth": "normal",
      "light": "0-4"
    }
  },
  "drops": {
    "amount": "2",
    "entries": [
      {
        "item": "minecraft:feather",
        "percentage": 50
      },
      {
        "item": "minecraft:chicken"
      }
    ]
  },
  "moves": [
    "8:pursuit",
    "15:aerialace",
    "22:assurance",
    "egg:astonish",
    "egg:featherdance",
    "egg:feintattack",
    "egg:quickattack",
    "egg:razorwind",
    "egg:scaryface",
    "egg:skyattack",
    "egg:steelwing",
    "egg:uproar",
    "egg:whirlwind",
    "tm:aerialace",
    "tm:attract",
    "tm:captivate",
    "tm:confide",
    "tm:doubleteam",
    "tm:echoedvoice",
    "tm:falseswipe",
    "tm:frustration",
    "tm:hiddenpower",
    "tm:naturalgift",
    "tm:pluck",
    "tm:raindance",
    "tm:return",
    "tm:round",
    "tm:secretpower",
    "tm:sleeptalk",
    "tm:steelwing",
    "tm:sunnyday",
    "tm:swagger",
    "tm:thief",
    "tm:workup",
    "tutor:agility",
    "tutor:aircutter",
    "tutor:attract",
    "tutor:batonpass",
    "tutor:bide",
    "tutor:curse",
    "tutor:defog",
    "tutor:detect",
    "tutor:doubleedge",
    "tutor:doubleteam",
    "tutor:drillpeck",
    "tutor:drillrun",
    "tutor:endure",
    "tutor:facade",
    "tutor:falseswipe",
    "tutor:feintattack",
    "tutor:fly",
    "tutor:focusenergy",
    "tutor:frustration",
    "tutor:furyattack",
    "tutor:growl",
    "tutor:headbutt",
    "tutor:heatwave",
    "tutor:hiddenpower",
    "tutor:leer",
    "tutor:mimic",
    "tutor:mirrormove",
    "tutor:mudslap",
    "tutor:ominouswind",
    "tutor:peck",
    "tutor:protect",
    "tutor:pursuit",
    "tutor:quickattack",
    "tutor:rage",
    "tutor:razorwind",
    "tutor:rest",
    "tutor:return",
    "tutor:roost",
    "tutor:scaryface",
    "tutor:skyattack",
    "tutor:skyattack",
    "tutor:sleeptalk",
    "tutor:snore",
    "tutor:snore",
    "tutor:steelwing",
    "tutor:substitute",
    "tutor:sunnyday",
    "tutor:swagger",
    "tutor:swift",
    "tutor:tailwind",
    "tutor:takedown",
    "tutor:thief",
    "tutor:toxic",
    "tutor:triattack",
    "tutor:twister",
    "tutor:uproar",
    "tutor:uturn",
    "tutor:whirlwind"
  ],
  "labels": [
    "gen1"
  ],
  "pokedex": [
    "cobblemon.species.spearow.desc"
  ],
  "evolutions": [
    {
      "id": "spearow_fearow",
      "variant": "level_up",
      "result": "fearow",
      "consumeHeldItem": false,
      "learnableMoves": [],
      "requirements": [
        {
          "variant": "level",
          "minLevel": 20
        }
      ]
    }
  ],
  "baseScale": 0.8,
  "hitbox": {
    "width": 0.6,
    "height": 0.8,
    "fixed": false
  },
  "baseFriendship": 70,
  "evYield": {
    "hp": 0,
    "attack": 0,
    "defence": 0,
    "special_attack": 0,
    "special_defence": 0,
    "speed": 1
  },
  "height": 3,
  "weight": 20,
  "aspects": [],
  "cannotDynamax": false
}