{
	"format_version": "1.8.0",
	"animations": {
		"animation.grotle.blink": {
			"animation_length": 0.1667,
			"bones": {
				"eyelid_left": {
					"position": {
						"0.0": [0.1, 0, 0],
						"0.125": [0.1, 0, 0],
						"0.1667": [0, 0, 0]
					}
				},
				"eyelid_right": {
					"position": {
						"0.0": [-0.1, 0, 0],
						"0.125": [-0.1, 0, 0],
						"0.1667": [0, 0, 0]
					}
				}
			}
		},
		"animation.grotle.cry": {
			"animation_length": 1.5,
			"bones": {
				"neck": {
					"rotation": {
						"0.0": [0, 0, 0],
						"0.25": [10, 0, 0],
						"1.25": [10, 0, 0],
						"1.5": [0, 0, 0]
					}
				},
				"head": {
					"rotation": {
						"0.0": [0, 0, 0],
						"0.25": [-7.5, 0, 0],
						"1.25": [-7.5, 0, 0],
						"1.5": [0, 0, 0]
					}
				},
				"jaw": {
					"rotation": {
						"0.0": [0, 0, 0],
						"0.25": [25, 0, 0],
						"1.25": [25, 0, 0],
						"1.5": [0, 0, 0]
					}
				}
			}
		},
		"animation.grotle.ground_idle": {
			"loop": true,
			"bones": {
				"torso": {
					"rotation": ["0.3*math.sin(q.anim_time*90*2+90)", "1.5*math.sin(q.anim_time*90*1.2)", 0]
				},
				"bush_left": {
					"rotation": ["1*math.sin(q.anim_time*90*2+90)", 0, "1*math.sin(q.anim_time*90*2+90)"]
				},
				"bush_right": {
					"rotation": ["-1*math.sin(q.anim_time*90*2+90)", 0, "-1*math.sin(q.anim_time*90*2+90)"]
				},
				"tail": {
					"rotation": ["-2*math.sin(q.anim_time*90*2+90)", 0, 0]
				},
				"leg_front_left": {
					"rotation": ["-0.1*math.sin(q.anim_time*90*2+90)", 0, 0]
				},
				"leg_front_right": {
					"rotation": ["-0.1*math.sin(q.anim_time*90*2+90)", 0, 0]
				},
				"leg_back_right": {
					"rotation": ["0.1*math.sin(q.anim_time*90*2+90)", 0, 0]
				},
				"leg_back_left": {
					"rotation": ["0.1*math.sin(q.anim_time*90*2+90)", 0, 0]
				}
			}
		},
		"animation.grotle.ground_walk": {
			"loop": true,
			"bones": {
				"leaf_left": {
					"rotation": [0, "-5*math.sin(q.anim_time*90*3+90)", 0]
				},
				"leaf_right": {
					"rotation": [0, "-5*math.sin(q.anim_time*90*3+90)", 0]
				},
				"body": {
					"position": ["-0.1*math.sin(q.anim_time*90)", "-0.1*math.sin(q.anim_time*90*3+90)", 0]
				},
				"torso": {
					"rotation": [0, 0, "1*math.sin(q.anim_time*90*3+90)"],
					"position": [0, 0, 0]
				},
				"bush_left": {
					"rotation": [0, "-0.5*math.sin(q.anim_time*90*3+90)", "-2*math.sin(q.anim_time*90*3+90)"]
				},
				"bush_right": {
					"rotation": [0, "-0.5*math.sin(q.anim_time*90*3+90)", "-2*math.sin(q.anim_time*90*3+90)"]
				},
				"head": {
					"rotation": [0, 0, "-2*math.sin(q.anim_time*90*3+90)"],
					"position": [0, 0, 0]
				},
				"tail": {
					"rotation": [0, "-3*math.sin(q.anim_time*90*2*1.3)", 0]
				},
				"leg_front_left": {
					"rotation": ["-13*math.sin(q.anim_time*90*3+90)", 0, 0]
				},
				"leg_front_right": {
					"rotation": ["13*math.sin(q.anim_time*90*3+90)", 0, 0]
				},
				"foot_front_right": {
					"rotation": [0, 0, 0]
				},
				"leg_back_right": {
					"rotation": ["-13*math.sin(q.anim_time*90*3+90)", 0, 0]
				},
				"leg_back_left": {
					"rotation": ["13*math.sin(q.anim_time*90*3+90)", 0, 0],
					"position": [0, 0, 0]
				}
			}
		}
	},
	"geckolib_format_version": 2
}