{
  "name": "Slakoth",
  "nationalPokedexNumber": 287,
  "primaryType": "normal",
  "abilities": [
    "truant"
  ],
  "baseStats": {
    "hp": 60,
    "attack": 60,
    "defence": 60,
    "special_attack": 35,
    "special_defence": 35,
    "speed": 30
  },
  "catchRate": 255,
  "maleRatio": 0.5,
  "shoulderMountable": false,
  "baseExperienceYield": 56,
  "experienceGroup": "slow",
  "eggCycles": 15,
  "eggGroups": [
    "field"
  ],
  "moves": [
    "1:scratch",
    "1:yawn",
    "6:encore",
    "9:slackoff",
    "14:feintattack",
    "14:headbutt",
    "17:amnesia",
    "22:covet",
    "25:chipaway",
    "25:throatchop",
    "30:counter",
    "33:flail",
    "38:playrough",
    "egg:afteryou",
    "egg:bodyslam",
    "egg:crushclaw",
    "egg:curse",
    "egg:hammerarm",
    "egg:nightslash",
    "egg:pursuit",
    "egg:slash",
    "egg:snore",
    "egg:tickle",
    "tm:aerialace",
    "tm:amnesia",
    "tm:attract",
    "tm:blizzard",
    "tm:bodyslam",
    "tm:brickbreak",
    "tm:bulkup",
    "tm:captivate",
    "tm:chillingwater",
    "tm:confide",
    "tm:cut",
    "tm:doubleteam",
    "tm:encore",
    "tm:endure",
    "tm:facade",
    "tm:falseswipe",
    "tm:fireblast",
    "tm:firepunch",
    "tm:flamethrower",
    "tm:fling",
    "tm:frustration",
    "tm:gunkshot",
    "tm:helpinghand",
    "tm:hiddenpower",
    "tm:honeclaws",
    "tm:icebeam",
    "tm:icepunch",
    "tm:icywind",
    "tm:incinerate",
    "tm:metalclaw",
    "tm:metronome",
    "tm:mudshot",
    "tm:mudslap",
    "tm:naturalgift",
    "tm:playrough",
    "tm:poisonjab",
    "tm:poweruppunch",
    "tm:protect",
    "tm:raindance",
    "tm:rest",
    "tm:retaliate",
    "tm:return",
    "tm:rockslide",
    "tm:rocksmash",
    "tm:rocktomb",
    "tm:round",
    "tm:secretpower",
    "tm:seedbomb",
    "tm:shadowball",
    "tm:shadowclaw",
    "tm:sleeptalk",
    "tm:solarbeam",
    "tm:strength",
    "tm:substitute",
    "tm:sunnyday",
    "tm:swagger",
    "tm:takedown",
    "tm:terablast",
    "tm:thief",
    "tm:thunder",
    "tm:thunderbolt",
    "tm:thunderpunch",
    "tm:toxic",
    "tm:workup",
    "tm:xscissor",
    "tm:zenheadbutt",
    "tutor:doubleedge",
    "tutor:dynamicpunch",
    "tutor:focuspunch",
    "tutor:furycutter",
    "tutor:megakick",
    "tutor:megapunch",
    "tutor:mimic",
    "tutor:seismictoss",
    "tutor:shockwave",
    "tutor:suckerpunch",
    "tutor:waterpulse"
  ],
  "labels": [
    "gen3"
  ],
  "pokedex": [
    "cobblemon.species.slakoth.desc"
  ],
  "evolutions": [
    {
      "id": "slakoth_vigoroth",
      "variant": "level_up",
      "result": "vigoroth",
      "consumeHeldItem": false,
      "learnableMoves": [],
      "requirements": [
        {
          "variant": "level",
          "minLevel": 18
        }
      ]
    }
  ],
  "baseScale": 1,
  "hitbox": {
    "width": 1,
    "height": 1,
    "fixed": false
  },
  "baseFriendship": 70,
  "evYield": {
    "hp": 1,
    "attack": 0,
    "defence": 0,
    "special_attack": 0,
    "special_defence": 0,
    "speed": 0
  },
  "height": 8,
  "weight": 240,
  "aspects": [],
  "cannotDynamax": false
}